[gd_scene load_steps=4 format=2]

[ext_resource path="res://Assets/Sprites/tile.png" type="Texture" id=1]
[ext_resource path="res://Assets/Sprites/cat.png" type="Texture" id=2]

[sub_resource type="TileSet" id=1]
0/name = "tile.png 0"
0/texture = ExtResource( 1 )
0/tex_offset = Vector2( 0, 0 )
0/modulate = Color( 1, 1, 1, 1 )
0/region = Rect2( 0, 0, 36, 18 )
0/tile_mode = 0
0/occluder_offset = Vector2( 0, 0 )
0/navigation_offset = Vector2( 0, 0 )
0/shapes = [  ]
0/z_index = 0
1/name = "cat.png 1"
1/texture = ExtResource( 2 )
1/tex_offset = Vector2( 0, 0 )
1/modulate = Color( 1, 1, 1, 1 )
1/region = Rect2( 0, 0, 36, 18 )
1/tile_mode = 0
1/occluder_offset = Vector2( 0, 0 )
1/navigation_offset = Vector2( 0, 0 )
1/shapes = [  ]
1/z_index = 0

[node name="Node2D" type="Node2D"]

[node name="TileMap" type="TileMap" parent="."]
mode = 1
tile_set = SubResource( 1 )
cell_size = Vector2( 36, 18 )
format = 1
tile_data = PoolIntArray( -393202, 0, 0, -393201, 0, 0, -393200, 0, 0, -393199, 0, 0, -393198, 1, 0, -327666, 0, 0, -327665, 1, 0, -327664, 1, 0, -327663, 0, 0, -327662, 1, 0, -262130, 0, 0, -262129, 0, 0, -262128, 0, 0, -262127, 0, 0, -262126, 1, 0, -196594, 0, 0, -196593, 0, 0, -196592, 0, 0, -196591, 0, 0 )
