[gd_scene load_steps=8 format=2]

[ext_resource path="res://Assets/Sprites/Objects/border.png" type="Texture" id=1]
[ext_resource path="res://Assets/Scenes/Cat.gd" type="Script" id=2]

[sub_resource type="Animation" id=1]
resource_name = "E"
length = 0.6
tracks/0/type = "value"
tracks/0/path = NodePath(".:frame")
tracks/0/interp = 1
tracks/0/loop_wrap = true
tracks/0/imported = false
tracks/0/enabled = true
tracks/0/keys = {
"times": PoolRealArray(  ),
"transitions": PoolRealArray(  ),
"update": 1,
"values": [  ]
}

[sub_resource type="Animation" id=2]
resource_name = "Idle"
step = 0.5
tracks/0/type = "value"
tracks/0/path = NodePath(".:frame")
tracks/0/interp = 1
tracks/0/loop_wrap = true
tracks/0/imported = false
tracks/0/enabled = true
tracks/0/keys = {
"times": PoolRealArray(  ),
"transitions": PoolRealArray(  ),
"update": 1,
"values": [  ]
}

[sub_resource type="Animation" id=3]
resource_name = "Lose"
length = 0.4
tracks/0/type = "value"
tracks/0/path = NodePath(".:frame")
tracks/0/interp = 1
tracks/0/loop_wrap = true
tracks/0/imported = false
tracks/0/enabled = true
tracks/0/keys = {
"times": PoolRealArray(  ),
"transitions": PoolRealArray(  ),
"update": 1,
"values": [  ]
}

[sub_resource type="Animation" id=4]
resource_name = "Run"
length = 0.4
tracks/0/type = "value"
tracks/0/path = NodePath(".:frame")
tracks/0/interp = 1
tracks/0/loop_wrap = true
tracks/0/imported = false
tracks/0/enabled = true
tracks/0/keys = {
"times": PoolRealArray(  ),
"transitions": PoolRealArray(  ),
"update": 1,
"values": [  ]
}
tracks/1/type = "value"
tracks/1/path = NodePath(".:position")
tracks/1/interp = 1
tracks/1/loop_wrap = true
tracks/1/imported = false
tracks/1/enabled = true
tracks/1/keys = {
"times": PoolRealArray( 0, 0.2, 0.4 ),
"transitions": PoolRealArray( 1.93187, 1.93187, 1.93187 ),
"update": 0,
"values": [ Vector2( 0, 0 ), Vector2( 0, -5 ), Vector2( 0, 0 ) ]
}

[sub_resource type="Animation" id=5]
resource_name = "Win"
length = 0.4
loop = true
step = 0.2
tracks/0/type = "value"
tracks/0/path = NodePath(".:frame")
tracks/0/interp = 1
tracks/0/loop_wrap = true
tracks/0/imported = false
tracks/0/enabled = true
tracks/0/keys = {
"times": PoolRealArray(  ),
"transitions": PoolRealArray(  ),
"update": 1,
"values": [  ]
}

[node name="Border" type="Node2D"]
script = ExtResource( 2 )
type = 5

[node name="AnimationPlayer" type="AnimationPlayer" parent="."]
root_node = NodePath("../Pivot/Cat")
playback_speed = 1.5
anims/E = SubResource( 1 )
anims/Idle = SubResource( 2 )
anims/Lose = SubResource( 3 )
anims/Run = SubResource( 4 )
anims/Win = SubResource( 5 )

[node name="Tween" type="Tween" parent="."]

[node name="Pivot" type="Position2D" parent="."]

[node name="Cat" type="Sprite" parent="Pivot"]
texture = ExtResource( 1 )
offset = Vector2( 0, 4 )
